Basic usage of azmetr • azmetr
…
Filtering by station

Information on the stations available is contained in the
station_info dataset including station name, station ID,
and location. As AZMet includes its Test station (“az99”) in this
information, retrieval of data for all stations will include Test
station data, which may be erroneous. Subsetting such a retrieval to
omit Test station data is recommended.

station_info
#> # A tibble: 34 × 7
#>    meta_station_name meta_station_id latitude longitude elev_m start_date status
#>    <chr>             <chr>              <dbl>     <dbl>  <dbl> <date>     <chr> 
#>  1 Tucson            az01                32.3     -111.    714 2020-01-01 active
#>  2 Yuma Valley       az02                32.7     -115.     36 2020-01-01 active
#>  3 Safford           az04                32.8     -110.    903 2020-01-01 active
#>  4 Coolidge          az05                33.0     -112.    423 2020-01-01 active
#>  5 Maricopa          az06                33.1     -112.    362 2020-01-01 active
#>  6 Aguila            az07                33.9     -113.    657 2020-01-01 active
#>  7 Parker            az08                34.0     -114.     98 2020-01-01 active
#>  8 Bonita            az09                32.5     -110.   1349 2020-01-01 active
#>  9 Phoenix Greenway  az12                33.6     -112.    403 2020-01-01 active
#> 10 Yuma N.Gila       az14                32.8     -115.     43 2020-01-01 active
#> # ℹ 24 more rows
…
