Using azmetr with the units package • azmetr
…
Using units columns

az_add_units() converts numeric vectors to those of
class “units”. These units columns behave differently than ordinary
numeric vectors and have a few useful properties. First, you can do unit
conversion using set_units() from the units
package.

hourly %>% 
  transmute(wind_spd_kph = set_units(wind_spd_mps, "km/h"),
            sol_rad_total = set_units(sol_rad_total, "W h m-2"),
            temp_airK = set_units(temp_airF, "Kelvins"))
#> # A tibble: 31 × 3
#>    wind_spd_kph sol_rad_total temp_airK
#>          [km/h]     [h*W/m^2]       [K]
#>  1        17.6           733.      311.
#>  2        16.6           714.      314.
#>  3        20.5           706.      311.
#>  4        11.9           728.      312.
#>  5         9.36          728.      315.
#>  6        10.4           717.      312.
#>  7        14.8           717.      314.
#>  8        16.2           636.      308.
#>  9        10.8           706.      314.
#> 10        13.7           711.      314.
#> # ℹ 21 more rows
…
