…
[`az_add_units()`](https://uace-azmet.github.io/azmetr/reference/az_add_units.md)
converts numeric vectors to those of class “units”. These units columns
behave differently than ordinary numeric vectors and have a few useful
properties. First, you can do unit conversion using
[`set_units()`](https://r-quantities.github.io/units/reference/units.html)
from the `units` package.

``` r

hourly %>% 
  transmute(wind_spd_kph = set_units(wind_spd_mps, "km/h"),
            sol_rad_total = set_units(sol_rad_total, "W h m-2"),
            temp_airK = set_units(temp_airF, "Kelvins"))
#> # A tibble: 35 × 3
#>    wind_spd_kph sol_rad_total temp_airK
#>          [km/h]     [W*h/m^2]       [K]
#>  1         5.04          567.      304.
#>  2         2.88          531.      304.
#>  3         6.12          600       303.
#>  4         7.2           606.      304.
#>  5         8.64          558.      305.
#>  6         7.56          583.      303.
#>  7        13.0           550       303.
#>  8         2.16          597.      301.
#>  9         3.96          556.      304.
#> 10         6.84          528.      304.
#> # ℹ 25 more rows
```
…
